^C:\USERS\ANTHO\SOURCE\REPOS\STATE_MACHINE\STATE_MACHINE\ASD.CPP
/c /ZI /JMC /nologo /W3 /WX- /diagnostics:column /sdl /Od /Oy- /D WIN32 /D _DEBUG /D _CONSOLE /D _UNICODE /D UNICODE /Gm- /EHsc /RTC1 /MDd /GS /fp:precise /permissive- /Zc:wchar_t /Zc:forScope /Zc:inline /Fo"DEBUG\\" /Fd"DEBUG\VC142.PDB" /Gd /TP /analyze- /FC C:\USERS\ANTHO\SOURCE\REPOS\STATE_MACHINE\STATE_MACHINE\ASD.CPP
^C:\USERS\ANTHO\SOURCE\REPOS\STATE_MACHINE\STATE_MACHINE\STATE.CPP
/c /ZI /JMC /nologo /W3 /WX- /diagnostics:column /sdl /Od /Oy- /D WIN32 /D _DEBUG /D _CONSOLE /D _UNICODE /D UNICODE /Gm- /EHsc /RTC1 /MDd /GS /fp:precise /permissive- /Zc:wchar_t /Zc:forScope /Zc:inline /Fo"DEBUG\\" /Fd"DEBUG\VC142.PDB" /Gd /TP /analyze- /FC C:\USERS\ANTHO\SOURCE\REPOS\STATE_MACHINE\STATE_MACHINE\STATE.CPP
^C:\USERS\ANTHO\SOURCE\REPOS\STATE_MACHINE\STATE_MACHINE\STOPPEDSTATE.CPP
/c /ZI /JMC /nologo /W3 /WX- /diagnostics:column /sdl /Od /Oy- /D WIN32 /D _DEBUG /D _CONSOLE /D _UNICODE /D UNICODE /Gm- /EHsc /RTC1 /MDd /GS /fp:precise /permissive- /Zc:wchar_t /Zc:forScope /Zc:inline /Fo"DEBUG\\" /Fd"DEBUG\VC142.PDB" /Gd /TP /analyze- /FC C:\USERS\ANTHO\SOURCE\REPOS\STATE_MACHINE\STATE_MACHINE\STOPPEDSTATE.CPP
^C:\USERS\ANTHO\SOURCE\REPOS\STATE_MACHINE\STATE_MACHINE\STATE_MACHINE.CPP
/c /ZI /JMC /nologo /W3 /WX- /diagnostics:column /sdl /Od /Oy- /D WIN32 /D _DEBUG /D _CONSOLE /D _UNICODE /D UNICODE /Gm- /EHsc /RTC1 /MDd /GS /fp:precise /permissive- /Zc:wchar_t /Zc:forScope /Zc:inline /Fo"DEBUG\\" /Fd"DEBUG\VC142.PDB" /Gd /TP /analyze- /FC C:\USERS\ANTHO\SOURCE\REPOS\STATE_MACHINE\STATE_MACHINE\STATE_MACHINE.CPP
^C:\USERS\ANTHO\COMMS13\STATE_MACHINE\STATE_MACHINE\EMERGENCY.CPP
/c /ZI /JMC /nologo /W3 /WX- /diagnostics:column /sdl /Od /Oy- /D WIN32 /D _DEBUG /D _CONSOLE /D _UNICODE /D UNICODE /Gm- /EHsc /RTC1 /MDd /GS /fp:precise /permissive- /Zc:wchar_t /Zc:forScope /Zc:inline /Fo"DEBUG\\" /Fd"DEBUG\VC142.PDB" /Gd /TP /analyze- /FC C:\USERS\ANTHO\COMMS13\STATE_MACHINE\STATE_MACHINE\EMERGENCY.CPP
^C:\USERS\ANTHO\COMMS13\STATE_MACHINE\STATE_MACHINE\MOVINGSTATE.CPP
/c /ZI /JMC /nologo /W3 /WX- /diagnostics:column /sdl /Od /Oy- /D WIN32 /D _DEBUG /D _CONSOLE /D _UNICODE /D UNICODE /Gm- /EHsc /RTC1 /MDd /GS /fp:precise /permissive- /Zc:wchar_t /Zc:forScope /Zc:inline /Fo"DEBUG\\" /Fd"DEBUG\VC142.PDB" /Gd /TP /analyze- /FC C:\USERS\ANTHO\COMMS13\STATE_MACHINE\STATE_MACHINE\MOVINGSTATE.CPP
^C:\USERS\ANTHO\COMMS13\STATE_MACHINE\STATE_MACHINE\STATE.CPP
/c /ZI /JMC /nologo /W3 /WX- /diagnostics:column /sdl /Od /Oy- /D WIN32 /D _DEBUG /D _CONSOLE /D _UNICODE /D UNICODE /Gm- /EHsc /RTC1 /MDd /GS /fp:precise /permissive- /Zc:wchar_t /Zc:forScope /Zc:inline /Fo"DEBUG\\" /Fd"DEBUG\VC142.PDB" /Gd /TP /analyze- /FC C:\USERS\ANTHO\COMMS13\STATE_MACHINE\STATE_MACHINE\STATE.CPP
^C:\USERS\ANTHO\COMMS13\STATE_MACHINE\STATE_MACHINE\STATE_MACHINE.CPP
/c /ZI /JMC /nologo /W3 /WX- /diagnostics:column /sdl /Od /Oy- /D WIN32 /D _DEBUG /D _CONSOLE /D _UNICODE /D UNICODE /Gm- /EHsc /RTC1 /MDd /GS /fp:precise /permissive- /Zc:wchar_t /Zc:forScope /Zc:inline /Fo"DEBUG\\" /Fd"DEBUG\VC142.PDB" /Gd /TP /analyze- /FC C:\USERS\ANTHO\COMMS13\STATE_MACHINE\STATE_MACHINE\STATE_MACHINE.CPP
^C:\USERS\ANTHO\COMMS13\STATE_MACHINE\STATE_MACHINE\STOPPEDCLOSED.CPP
/c /ZI /JMC /nologo /W3 /WX- /diagnostics:column /sdl /Od /Oy- /D WIN32 /D _DEBUG /D _CONSOLE /D _UNICODE /D UNICODE /Gm- /EHsc /RTC1 /MDd /GS /fp:precise /permissive- /Zc:wchar_t /Zc:forScope /Zc:inline /Fo"DEBUG\\" /Fd"DEBUG\VC142.PDB" /Gd /TP /analyze- /FC C:\USERS\ANTHO\COMMS13\STATE_MACHINE\STATE_MACHINE\STOPPEDCLOSED.CPP
